STAT 385 - 2 R for Data Sciences
…
2.1.2 Differences between tibble and data.frame.

2.1.2.1 Printing

Tibbles have a refined print method that shows only the first 10 rows and all the columns that fit on screen.

deck <- tibble(suit=rep(c('spades', 'hearts', 'clubs', 'diamonds'), 13), face=rep(1:13, 4))
deck
#> # A tibble: 52 x 2
#>    suit      face
#>    <chr>    <int>
#>  1 spades       1
#>  2 hearts       2
#>  3 clubs        3
#>  4 diamonds     4
#>  5 spades       5
#>  6 hearts       6
#>  7 clubs        7
#>  8 diamonds     8
#>  9 spades       9
#> 10 hearts      10
#> # i 42 more rows
…
2.3 dplyr

dplyr is a package used to manipulate data. Here we will just introduce the most basic functions. We will use nycflights13::flights as the example. This dataset comes from the US Bureau of Transportation Statistics. The document can be found here.

To load the dataset, please use the following code.

library(nycflights13)
flights
#> # A tibble: 336,776 x 19
#>     year month   day dep_time sched_dep_time dep_delay arr_time sched_arr_time
#>    <int> <int> <int>    <int>          <int>     <dbl>    <int>          <int>
#>  1  2013     1     1      517            515         2      830            819
#>  2  2013     1     1      533            529         4      850            830
#>  3  2013     1     1      542            540         2      923            850
#>  4  2013     1     1      544            545        -1     1004           1022
#>  5  2013     1     1      554            600        -6      812            837
#>  6  2013     1     1      554            558        -4      740            728
#>  7  2013     1     1      555            600        -5      913            854
#>  8  2013     1     1      557            600        -3      709            723
#>  9  2013     1     1      557            600        -3      838            846
#> 10  2013     1     1      558            600        -2      753            745
#> # i 336,766 more rows
#> # i 11 more variables: arr_delay <dbl>, carrier <chr>, flight <int>,
#> #   tailnum <chr>, origin <chr>, dest <chr>, air_time <dbl>, distance <dbl>,
#> #   hour <dbl>, minute <dbl>, time_hour <dttm>

2.3.1 filter()

filter() allows you to subset observations based on their values. The first argument is the name of the tibble. The rest are the expressions that filter the data. Please see the following examples.

flights %>% filter(month==1, day==1)
#> # A tibble: 842 x 19
#>     year month   day dep_time sched_dep_time dep_delay arr_time sched_arr_time
#>    <int> <int> <int>    <int>          <int>     <dbl>    <int>          <int>
#>  1  2013     1     1      517            515         2      830            819
#>  2  2013     1     1      533            529         4      850            830
#>  3  2013     1     1      542            540         2      923            850
#>  4  2013     1     1      544            545        -1     1004           1022
#>  5  2013     1     1      554            600        -6      812            837
#>  6  2013     1     1      554            558        -4      740            728
#>  7  2013     1     1      555            600        -5      913            854
#>  8  2013     1     1      557            600        -3      709            723
#>  9  2013     1     1      557            600        -3      838            846
#> 10  2013     1     1      558            600        -2      753            745
#> # i 832 more rows
#> # i 11 more variables: arr_delay <dbl>, carrier <chr>, flight <int>,
#> #   tailnum <chr>, origin <chr>, dest <chr>, air_time <dbl>, distance <dbl>,
#> #   hour <dbl>, minute <dbl>, time_hour <dttm>

2.3.2 select()

select() allows you to filter columns. It is very similar to slicing [].

2.3.3 mutate()

mutate() is used to add new columns that are functions of existing columns.

flights %>% mutate(gain=arr_delay-dep_delay, hours=air_time/60, gain_per_hour=gain/hours)
#> # A tibble: 336,776 x 22
#>     year month   day dep_time sched_dep_time dep_delay arr_time sched_arr_time
#>    <int> <int> <int>    <int>          <int>     <dbl>    <int>          <int>
#>  1  2013     1     1      517            515         2      830            819
#>  2  2013     1     1      533            529         4      850            830
#>  3  2013     1     1      542            540         2      923            850
#>  4  2013     1     1      544            545        -1     1004           1022
#>  5  2013     1     1      554            600        -6      812            837
#>  6  2013     1     1      554            558        -4      740            728
#>  7  2013     1     1      555            600        -5      913            854
#>  8  2013     1     1      557            600        -3      709            723
#>  9  2013     1     1      557            600        -3      838            846
#> 10  2013     1     1      558            600        -2      753            745
#> # i 336,766 more rows
#> # i 14 more variables: arr_delay <dbl>, carrier <chr>, flight <int>,
#> #   tailnum <chr>, origin <chr>, dest <chr>, air_time <dbl>, distance <dbl>,
#> #   hour <dbl>, minute <dbl>, time_hour <dttm>, gain <dbl>, hours <dbl>,
#> #   gain_per_hour <dbl>

If you only want to see the new columns, transmute() can be used.

flights %>% transmute(gain=arr_delay-dep_delay, hours=air_time/60, gain_per_hour=gain/hours)
#> # A tibble: 336,776 x 3
#>     gain hours gain_per_hour
#>    <dbl> <dbl>         <dbl>
#>  1     9 3.78           2.38
#>  2    16 3.78           4.23
#>  3    31 2.67          11.6 
#>  4   -17 3.05          -5.57
#>  5   -19 1.93          -9.83
#>  6    16 2.5            6.4 
#>  7    24 2.63           9.11
#>  8   -11 0.883        -12.5 
#>  9    -5 2.33          -2.14
#> 10    10 2.3            4.35
#> # i 336,766 more rows
…
Cumulative and rolling aggregates: cumsum(), cumprod(), cummin(), cummax(), cummean()

Logical comparisons: <, <=, >, >=, !=.

2.3.4 summarize() and group_by()

summarize() collapses a dataset to a single row. It computes values across all rows. It is usually paired with group_by(). Here are some examples.

Example 2.3  

flights %>% group_by(year, month, day) %>% 
    summarize(delay=mean(dep_delay, na.rm=TRUE))
#> `summarise()` has grouped output by 'year', 'month'. You can override using the
#> `.groups` argument.
#> # A tibble: 365 x 4
#> # Groups:   year, month [12]
#>     year month   day delay
#>    <int> <int> <int> <dbl>
#>  1  2013     1     1 11.5 
#>  2  2013     1     2 13.9 
#>  3  2013     1     3 11.0 
#>  4  2013     1     4  8.95
#>  5  2013     1     5  5.73
#>  6  2013     1     6  7.15
#>  7  2013     1     7  5.42
#>  8  2013     1     8  2.55
#>  9  2013     1     9  2.28
#> 10  2013     1    10  2.84
#> # i 355 more rows

Example 2.4  

delays <- flights %>% 
    group_by(dest) %>% 
    summarize(
        count=n(), 
        dist=mean(distance, na.rm=TRUE),
        delay=mean(arr_delay, na.rm=TRUE)
    ) %>% 
    filter(count>20, dest!='HNL')
delays
#> # A tibble: 96 x 4
#>    dest  count  dist delay
#>    <chr> <int> <dbl> <dbl>
#>  1 ABQ     254 1826   4.38
#>  2 ACK     265  199   4.85
#>  3 ALB     439  143  14.4 
#>  4 ATL   17215  757. 11.3 
#>  5 AUS    2439 1514.  6.02
#>  6 AVL     275  584.  8.00
#>  7 BDL     443  116   7.05
#>  8 BGR     375  378   8.03
#>  9 BHM     297  866. 16.9 
#> 10 BNA    6333  758. 11.8 
#> # i 86 more rows

group_by() can also be used together with mutate() and filter().

Example 2.5  

flights %>%
    group_by(dest) %>%
    filter(n() > 365) %>%
    filter(arr_delay > 0) %>%
    mutate(prop_delay = arr_delay / sum(arr_delay)) %>%
    select(year:day, dest, arr_delay, prop_delay)
#> # A tibble: 131,106 x 6
#> # Groups:   dest [77]
#>     year month   day dest  arr_delay prop_delay
#>    <int> <int> <int> <chr>     <dbl>      <dbl>
#>  1  2013     1     1 IAH          11  0.000111 
#>  2  2013     1     1 IAH          20  0.000201 
#>  3  2013     1     1 MIA          33  0.000235 
#>  4  2013     1     1 ORD          12  0.0000424
#>  5  2013     1     1 FLL          19  0.0000938
#>  6  2013     1     1 ORD           8  0.0000283
#>  7  2013     1     1 LAX           7  0.0000344
#>  8  2013     1     1 DFW          31  0.000282 
#>  9  2013     1     1 ATL          12  0.0000400
#> 10  2013     1     1 DTW          16  0.000116 
#> # i 131,096 more rows
…
We already use it in the above examples. This is to compute the number of observations in the current group. This function is implemented specifically for each data source and can only be used from within summarise(), mutate() and filter().

2.4 ggplot2

This is the graphing package for R in tidyverse. ggplot2 implements the grammar of graphics, a coherent system for describing and building graphs. With ggplot2, you can do more faster by learning one system and applying it in many places. The main function is ggplot().

ggplot2 will be uploaded with tidyverse.

library(tidyverse)

We use the dataset mpg as the example. This dataset comes with ggplot2. Once you load ggplot2 you can directly find the dataset by typing mpg.

mpg
#> # A tibble: 234 x 11
#>    manufacturer model      displ  year   cyl trans drv     cty   hwy fl    class
#>    <chr>        <chr>      <dbl> <int> <int> <chr> <chr> <int> <int> <chr> <chr>
#>  1 audi         a4           1.8  1999     4 auto~ f        18    29 p     comp~
#>  2 audi         a4           1.8  1999     4 manu~ f        21    29 p     comp~
#>  3 audi         a4           2    2008     4 manu~ f        20    31 p     comp~
#>  4 audi         a4           2    2008     4 auto~ f        21    30 p     comp~
#>  5 audi         a4           2.8  1999     6 auto~ f        16    26 p     comp~
#>  6 audi         a4           2.8  1999     6 manu~ f        18    26 p     comp~
#>  7 audi         a4           3.1  2008     6 auto~ f        18    27 p     comp~
#>  8 audi         a4 quattro   1.8  1999     4 manu~ 4        18    26 p     comp~
#>  9 audi         a4 quattro   1.8  1999     4 auto~ 4        16    25 p     comp~
#> 10 audi         a4 quattro   2    2008     4 manu~ 4        20    28 p     comp~
#> # i 224 more rows
…
