STAT 385 - 3 Projects with R
…
#> Warning: package 'dplyr' was built under R version 4.1.3
#> Warning: package 'stringr' was built under R version 4.1.3
#> Warning: package 'forcats' was built under R version 4.1.3
#> -- Attaching core tidyverse packages ------------------------ tidyverse 2.0.0 --
#> v dplyr     1.1.1     v readr     2.1.4
#> v forcats   1.0.0     v stringr   1.5.0
#> v ggplot2   3.4.4     v tibble    3.2.1
#> v lubridate 1.9.3     v tidyr     1.3.0
#> v purrr     1.0.1     
#> -- Conflicts ------------------------------------------ tidyverse_conflicts() --
#> x dplyr::filter() masks stats::filter()
#> x dplyr::lag()    masks stats::lag()
#> i Use the conflicted package (<http://conflicted.r-lib.org/>) to force all conflicts to become errors
who
#> # A tibble: 7,240 x 60
#>    country  iso2  iso3   year new_sp_m014 new_sp_m1524 new_sp_m2534 new_sp_m3544
#>    <chr>    <chr> <chr> <dbl>       <dbl>        <dbl>        <dbl>        <dbl>
#>  1 Afghani~ AF    AFG    1980          NA           NA           NA           NA
#>  2 Afghani~ AF    AFG    1981          NA           NA           NA           NA
#>  3 Afghani~ AF    AFG    1982          NA           NA           NA           NA
#>  4 Afghani~ AF    AFG    1983          NA           NA           NA           NA
#>  5 Afghani~ AF    AFG    1984          NA           NA           NA           NA
#>  6 Afghani~ AF    AFG    1985          NA           NA           NA           NA
#>  7 Afghani~ AF    AFG    1986          NA           NA           NA           NA
#>  8 Afghani~ AF    AFG    1987          NA           NA           NA           NA
#>  9 Afghani~ AF    AFG    1988          NA           NA           NA           NA
#> 10 Afghani~ AF    AFG    1989          NA           NA           NA           NA
#> # i 7,230 more rows
#> # i 52 more variables: new_sp_m4554 <dbl>, new_sp_m5564 <dbl>,
#> #   new_sp_m65 <dbl>, new_sp_f014 <dbl>, new_sp_f1524 <dbl>,
#> #   new_sp_f2534 <dbl>, new_sp_f3544 <dbl>, new_sp_f4554 <dbl>,
#> #   new_sp_f5564 <dbl>, new_sp_f65 <dbl>, new_sn_m014 <dbl>,
#> #   new_sn_m1524 <dbl>, new_sn_m2534 <dbl>, new_sn_m3544 <dbl>,
#> #   new_sn_m4554 <dbl>, new_sn_m5564 <dbl>, new_sn_m65 <dbl>, ...
…
Example 3.6 Please compute the proportions of each name relateive to the total number of births per year per gender.

Tip

df %>% 
    group_by(gender, year) %>% 
    mutate(prop=counts/sum(counts))
#> # A tibble: 1,690,784 x 5
#> # Groups:   gender, year [262]
#>    name      gender counts  year   prop
#>    <chr>     <chr>   <int> <int>  <dbl>
#>  1 Mary      F        7065  1880 0.0776
#>  2 Anna      F        2604  1880 0.0286
#>  3 Emma      F        2003  1880 0.0220
#>  4 Elizabeth F        1939  1880 0.0213
#>  5 Minnie    F        1746  1880 0.0192
#>  6 Margaret  F        1578  1880 0.0173
#>  7 Ida       F        1472  1880 0.0162
#>  8 Alice     F        1414  1880 0.0155
#>  9 Bertha    F        1320  1880 0.0145
#> 10 Sarah     F        1288  1880 0.0142
#> # i 1,690,774 more rows
…
